…
We are 95% confident that the median price of Airbnbs per night in NYC
is between $92.50 and $138.50.

### Part B

Created a linear model predict Airbnb price by borough
(neighbourhood\_group):

``` r
abnb %>%
  mutate(neighbourhood_group = fct_relevel(neighbourhood_group, "Manhattan", "Brooklyn","Staten Island","Queens", "Bronx"))
```

    ## # A tibble: 48,895 x 16
    ##       id name  host_id host_name neighbourhood_g… neighbourhood latitude
    ##    <dbl> <chr>   <dbl> <chr>     <fct>            <chr>            <dbl>
    ##  1  2539 Clea…    2787 John      Brooklyn         Kensington        40.6
    ##  2  2595 Skyl…    2845 Jennifer  Manhattan        Midtown           40.8
    ##  3  3647 THE …    4632 Elisabeth Manhattan        Harlem            40.8
    ##  4  3831 Cozy…    4869 LisaRoxa… Brooklyn         Clinton Hill      40.7
    ##  5  5022 Enti…    7192 Laura     Manhattan        East Harlem       40.8
    ##  6  5099 Larg…    7322 Chris     Manhattan        Murray Hill       40.7
    ##  7  5121 Blis…    7356 Garon     Brooklyn         Bedford-Stuy…     40.7
    ##  8  5178 Larg…    8967 Shunichi  Manhattan        Hell's Kitch…     40.8
    ##  9  5203 Cozy…    7490 MaryEllen Manhattan        Upper West S…     40.8
    ## 10  5238 Cute…    7549 Ben       Manhattan        Chinatown         40.7
    ## # … with 48,885 more rows, and 9 more variables: longitude <dbl>,
    ## #   room_type <chr>, price <dbl>, minimum_nights <dbl>,
    ## #   number_of_reviews <dbl>, last_review <date>, reviews_per_month <dbl>,
    ## #   calculated_host_listings_count <dbl>, availability_365 <dbl>
…
