…
```r
remove_reg <- "&amp;|&lt;|&gt;"
tidy_description <- abnb_text %>%
  mutate(name = str_remove_all(name, remove_reg)) %>%
  unnest_tokens(word, name)

tidy_description
```

```
## # A tibble: 24,435 x 4
##          id availability_365_case availability_365 word     
##       <dbl> <chr>                            <dbl> <chr>    
##  1 26274952 Low                                 72 entire   
##  2 26274952 Low                                 72 apartment
##  3 26274952 Low                                 72 in       
##  4 26274952 Low                                 72 house    
##  5 26274952 Low                                 72 20mins   
##  6 26274952 Low                                 72 to       
##  7 26274952 Low                                 72 free     
##  8 26274952 Low                                 72 ferry    
##  9 35771605 Low                                 25 master   
## 10 35771605 Low                                 25 bedroom  
## # … with 24,425 more rows
```
…
