…
``` r
abnb %>%
  group_by(neighbourhood_group) %>%
  select(neighbourhood) %>%
  count(neighbourhood) %>%
  arrange(desc(n))
```

    ## Adding missing grouping variables: `neighbourhood_group`

    ## # A tibble: 221 x 3
    ## # Groups:   neighbourhood_group [5]
    ##    neighbourhood_group neighbourhood          n
    ##    <chr>               <chr>              <int>
    ##  1 Brooklyn            Williamsburg        3920
    ##  2 Brooklyn            Bedford-Stuyvesant  3714
    ##  3 Manhattan           Harlem              2658
    ##  4 Brooklyn            Bushwick            2465
    ##  5 Manhattan           Upper West Side     1971
    ##  6 Manhattan           Hell's Kitchen      1958
    ##  7 Manhattan           East Village        1853
    ##  8 Manhattan           Upper East Side     1798
    ##  9 Brooklyn            Crown Heights       1564
    ## 10 Manhattan           Midtown             1545
    ## # … with 211 more rows
…
